%!PS-Adobe-2.0 EPSF-2.0
%%Title: r3-sl-numbers.eps
%%Creator: gnuplot 4.6 patchlevel 5
%%CreationDate: Fri Oct 27 10:40:07 2017
%%DocumentFonts: (atend)
%%BoundingBox: 50 50 1058 302
%%EndComments
%%BeginProlog
/gnudict 256 dict def
gnudict begin
%
% The following true/false flags may be edited by hand if desired.
% The unit line width and grayscale image gamma correction may also be changed.
%
/Color true def
/Blacktext false def
/Solid false def
/Dashlength 1 def
/Landscape false def
/Level1 false def
/Rounded false def
/ClipToBoundingBox false def
/SuppressPDFMark false def
/TransparentPatterns false def
/gnulinewidth 5.000 def
/userlinewidth gnulinewidth def
/Gamma 1.0 def
/BackgroundColor {-1.000 -1.000 -1.000} def
%
/vshift -100 def
/dl1 {
  10.0 Dashlength mul mul
  Rounded { currentlinewidth 0.75 mul sub dup 0 le { pop 0.01 } if } if
} def
/dl2 {
  10.0 Dashlength mul mul
  Rounded { currentlinewidth 0.75 mul add } if
} def
/hpt_ 31.5 def
/vpt_ 31.5 def
/hpt hpt_ def
/vpt vpt_ def
/doclip {
  ClipToBoundingBox {
    newpath 50 50 moveto 1058 50 lineto 1058 302 lineto 50 302 lineto closepath
    clip
  } if
} def
%
% Gnuplot Prolog Version 4.6 (September 2012)
%
%/SuppressPDFMark true def
%
/M {moveto} bind def
/L {lineto} bind def
/R {rmoveto} bind def
/V {rlineto} bind def
/N {newpath moveto} bind def
/Z {closepath} bind def
/C {setrgbcolor} bind def
/f {rlineto fill} bind def
/g {setgray} bind def
/Gshow {show} def   % May be redefined later in the file to support UTF-8
/vpt2 vpt 2 mul def
/hpt2 hpt 2 mul def
/Lshow {currentpoint stroke M 0 vshift R 
	Blacktext {gsave 0 setgray show grestore} {show} ifelse} def
/Rshow {currentpoint stroke M dup stringwidth pop neg vshift R
	Blacktext {gsave 0 setgray show grestore} {show} ifelse} def
/Cshow {currentpoint stroke M dup stringwidth pop -2 div vshift R 
	Blacktext {gsave 0 setgray show grestore} {show} ifelse} def
/UP {dup vpt_ mul /vpt exch def hpt_ mul /hpt exch def
  /hpt2 hpt 2 mul def /vpt2 vpt 2 mul def} def
/DL {Color {setrgbcolor Solid {pop []} if 0 setdash}
 {pop pop pop 0 setgray Solid {pop []} if 0 setdash} ifelse} def
/BL {stroke userlinewidth 2 mul setlinewidth
	Rounded {1 setlinejoin 1 setlinecap} if} def
/AL {stroke userlinewidth 2 div setlinewidth
	Rounded {1 setlinejoin 1 setlinecap} if} def
/UL {dup gnulinewidth mul /userlinewidth exch def
	dup 1 lt {pop 1} if 10 mul /udl exch def} def
/PL {stroke userlinewidth setlinewidth
	Rounded {1 setlinejoin 1 setlinecap} if} def
3.8 setmiterlimit
% Default Line colors
/LCw {1 1 1} def
/LCb {0 0 0} def
/LCa {0 0 0} def
/LC0 {1 0 0} def
/LC1 {0 1 0} def
/LC2 {0 0 1} def
/LC3 {1 0 1} def
/LC4 {0 1 1} def
/LC5 {1 1 0} def
/LC6 {0 0 0} def
/LC7 {1 0.3 0} def
/LC8 {0.5 0.5 0.5} def
% Default Line Types
/LTw {PL [] 1 setgray} def
/LTb {BL [] LCb DL} def
/LTa {AL [1 udl mul 2 udl mul] 0 setdash LCa setrgbcolor} def
/LT0 {PL [] LC0 DL} def
/LT1 {PL [4 dl1 2 dl2] LC1 DL} def
/LT2 {PL [2 dl1 3 dl2] LC2 DL} def
/LT3 {PL [1 dl1 1.5 dl2] LC3 DL} def
/LT4 {PL [6 dl1 2 dl2 1 dl1 2 dl2] LC4 DL} def
/LT5 {PL [3 dl1 3 dl2 1 dl1 3 dl2] LC5 DL} def
/LT6 {PL [2 dl1 2 dl2 2 dl1 6 dl2] LC6 DL} def
/LT7 {PL [1 dl1 2 dl2 6 dl1 2 dl2 1 dl1 2 dl2] LC7 DL} def
/LT8 {PL [2 dl1 2 dl2 2 dl1 2 dl2 2 dl1 2 dl2 2 dl1 4 dl2] LC8 DL} def
/Pnt {stroke [] 0 setdash gsave 1 setlinecap M 0 0 V stroke grestore} def
/Dia {stroke [] 0 setdash 2 copy vpt add M
  hpt neg vpt neg V hpt vpt neg V
  hpt vpt V hpt neg vpt V closepath stroke
  Pnt} def
/Pls {stroke [] 0 setdash vpt sub M 0 vpt2 V
  currentpoint stroke M
  hpt neg vpt neg R hpt2 0 V stroke
 } def
/Box {stroke [] 0 setdash 2 copy exch hpt sub exch vpt add M
  0 vpt2 neg V hpt2 0 V 0 vpt2 V
  hpt2 neg 0 V closepath stroke
  Pnt} def
/Crs {stroke [] 0 setdash exch hpt sub exch vpt add M
  hpt2 vpt2 neg V currentpoint stroke M
  hpt2 neg 0 R hpt2 vpt2 V stroke} def
/TriU {stroke [] 0 setdash 2 copy vpt 1.12 mul add M
  hpt neg vpt -1.62 mul V
  hpt 2 mul 0 V
  hpt neg vpt 1.62 mul V closepath stroke
  Pnt} def
/Star {2 copy Pls Crs} def
/BoxF {stroke [] 0 setdash exch hpt sub exch vpt add M
  0 vpt2 neg V hpt2 0 V 0 vpt2 V
  hpt2 neg 0 V closepath fill} def
/TriUF {stroke [] 0 setdash vpt 1.12 mul add M
  hpt neg vpt -1.62 mul V
  hpt 2 mul 0 V
  hpt neg vpt 1.62 mul V closepath fill} def
/TriD {stroke [] 0 setdash 2 copy vpt 1.12 mul sub M
  hpt neg vpt 1.62 mul V
  hpt 2 mul 0 V
  hpt neg vpt -1.62 mul V closepath stroke
  Pnt} def
/TriDF {stroke [] 0 setdash vpt 1.12 mul sub M
  hpt neg vpt 1.62 mul V
  hpt 2 mul 0 V
  hpt neg vpt -1.62 mul V closepath fill} def
/DiaF {stroke [] 0 setdash vpt add M
  hpt neg vpt neg V hpt vpt neg V
  hpt vpt V hpt neg vpt V closepath fill} def
/Pent {stroke [] 0 setdash 2 copy gsave
  translate 0 hpt M 4 {72 rotate 0 hpt L} repeat
  closepath stroke grestore Pnt} def
/PentF {stroke [] 0 setdash gsave
  translate 0 hpt M 4 {72 rotate 0 hpt L} repeat
  closepath fill grestore} def
/Circle {stroke [] 0 setdash 2 copy
  hpt 0 360 arc stroke Pnt} def
/CircleF {stroke [] 0 setdash hpt 0 360 arc fill} def
/C0 {BL [] 0 setdash 2 copy moveto vpt 90 450 arc} bind def
/C1 {BL [] 0 setdash 2 copy moveto
	2 copy vpt 0 90 arc closepath fill
	vpt 0 360 arc closepath} bind def
/C2 {BL [] 0 setdash 2 copy moveto
	2 copy vpt 90 180 arc closepath fill
	vpt 0 360 arc closepath} bind def
/C3 {BL [] 0 setdash 2 copy moveto
	2 copy vpt 0 180 arc closepath fill
	vpt 0 360 arc closepath} bind def
/C4 {BL [] 0 setdash 2 copy moveto
	2 copy vpt 180 270 arc closepath fill
	vpt 0 360 arc closepath} bind def
/C5 {BL [] 0 setdash 2 copy moveto
	2 copy vpt 0 90 arc
	2 copy moveto
	2 copy vpt 180 270 arc closepath fill
	vpt 0 360 arc} bind def
/C6 {BL [] 0 setdash 2 copy moveto
	2 copy vpt 90 270 arc closepath fill
	vpt 0 360 arc closepath} bind def
/C7 {BL [] 0 setdash 2 copy moveto
	2 copy vpt 0 270 arc closepath fill
	vpt 0 360 arc closepath} bind def
/C8 {BL [] 0 setdash 2 copy moveto
	2 copy vpt 270 360 arc closepath fill
	vpt 0 360 arc closepath} bind def
/C9 {BL [] 0 setdash 2 copy moveto
	2 copy vpt 270 450 arc closepath fill
	vpt 0 360 arc closepath} bind def
/C10 {BL [] 0 setdash 2 copy 2 copy moveto vpt 270 360 arc closepath fill
	2 copy moveto
	2 copy vpt 90 180 arc closepath fill
	vpt 0 360 arc closepath} bind def
/C11 {BL [] 0 setdash 2 copy moveto
	2 copy vpt 0 180 arc closepath fill
	2 copy moveto
	2 copy vpt 270 360 arc closepath fill
	vpt 0 360 arc closepath} bind def
/C12 {BL [] 0 setdash 2 copy moveto
	2 copy vpt 180 360 arc closepath fill
	vpt 0 360 arc closepath} bind def
/C13 {BL [] 0 setdash 2 copy moveto
	2 copy vpt 0 90 arc closepath fill
	2 copy moveto
	2 copy vpt 180 360 arc closepath fill
	vpt 0 360 arc closepath} bind def
/C14 {BL [] 0 setdash 2 copy moveto
	2 copy vpt 90 360 arc closepath fill
	vpt 0 360 arc} bind def
/C15 {BL [] 0 setdash 2 copy vpt 0 360 arc closepath fill
	vpt 0 360 arc closepath} bind def
/Rec {newpath 4 2 roll moveto 1 index 0 rlineto 0 exch rlineto
	neg 0 rlineto closepath} bind def
/Square {dup Rec} bind def
/Bsquare {vpt sub exch vpt sub exch vpt2 Square} bind def
/S0 {BL [] 0 setdash 2 copy moveto 0 vpt rlineto BL Bsquare} bind def
/S1 {BL [] 0 setdash 2 copy vpt Square fill Bsquare} bind def
/S2 {BL [] 0 setdash 2 copy exch vpt sub exch vpt Square fill Bsquare} bind def
/S3 {BL [] 0 setdash 2 copy exch vpt sub exch vpt2 vpt Rec fill Bsquare} bind def
/S4 {BL [] 0 setdash 2 copy exch vpt sub exch vpt sub vpt Square fill Bsquare} bind def
/S5 {BL [] 0 setdash 2 copy 2 copy vpt Square fill
	exch vpt sub exch vpt sub vpt Square fill Bsquare} bind def
/S6 {BL [] 0 setdash 2 copy exch vpt sub exch vpt sub vpt vpt2 Rec fill Bsquare} bind def
/S7 {BL [] 0 setdash 2 copy exch vpt sub exch vpt sub vpt vpt2 Rec fill
	2 copy vpt Square fill Bsquare} bind def
/S8 {BL [] 0 setdash 2 copy vpt sub vpt Square fill Bsquare} bind def
/S9 {BL [] 0 setdash 2 copy vpt sub vpt vpt2 Rec fill Bsquare} bind def
/S10 {BL [] 0 setdash 2 copy vpt sub vpt Square fill 2 copy exch vpt sub exch vpt Square fill
	Bsquare} bind def
/S11 {BL [] 0 setdash 2 copy vpt sub vpt Square fill 2 copy exch vpt sub exch vpt2 vpt Rec fill
	Bsquare} bind def
/S12 {BL [] 0 setdash 2 copy exch vpt sub exch vpt sub vpt2 vpt Rec fill Bsquare} bind def
/S13 {BL [] 0 setdash 2 copy exch vpt sub exch vpt sub vpt2 vpt Rec fill
	2 copy vpt Square fill Bsquare} bind def
/S14 {BL [] 0 setdash 2 copy exch vpt sub exch vpt sub vpt2 vpt Rec fill
	2 copy exch vpt sub exch vpt Square fill Bsquare} bind def
/S15 {BL [] 0 setdash 2 copy Bsquare fill Bsquare} bind def
/D0 {gsave translate 45 rotate 0 0 S0 stroke grestore} bind def
/D1 {gsave translate 45 rotate 0 0 S1 stroke grestore} bind def
/D2 {gsave translate 45 rotate 0 0 S2 stroke grestore} bind def
/D3 {gsave translate 45 rotate 0 0 S3 stroke grestore} bind def
/D4 {gsave translate 45 rotate 0 0 S4 stroke grestore} bind def
/D5 {gsave translate 45 rotate 0 0 S5 stroke grestore} bind def
/D6 {gsave translate 45 rotate 0 0 S6 stroke grestore} bind def
/D7 {gsave translate 45 rotate 0 0 S7 stroke grestore} bind def
/D8 {gsave translate 45 rotate 0 0 S8 stroke grestore} bind def
/D9 {gsave translate 45 rotate 0 0 S9 stroke grestore} bind def
/D10 {gsave translate 45 rotate 0 0 S10 stroke grestore} bind def
/D11 {gsave translate 45 rotate 0 0 S11 stroke grestore} bind def
/D12 {gsave translate 45 rotate 0 0 S12 stroke grestore} bind def
/D13 {gsave translate 45 rotate 0 0 S13 stroke grestore} bind def
/D14 {gsave translate 45 rotate 0 0 S14 stroke grestore} bind def
/D15 {gsave translate 45 rotate 0 0 S15 stroke grestore} bind def
/DiaE {stroke [] 0 setdash vpt add M
  hpt neg vpt neg V hpt vpt neg V
  hpt vpt V hpt neg vpt V closepath stroke} def
/BoxE {stroke [] 0 setdash exch hpt sub exch vpt add M
  0 vpt2 neg V hpt2 0 V 0 vpt2 V
  hpt2 neg 0 V closepath stroke} def
/TriUE {stroke [] 0 setdash vpt 1.12 mul add M
  hpt neg vpt -1.62 mul V
  hpt 2 mul 0 V
  hpt neg vpt 1.62 mul V closepath stroke} def
/TriDE {stroke [] 0 setdash vpt 1.12 mul sub M
  hpt neg vpt 1.62 mul V
  hpt 2 mul 0 V
  hpt neg vpt -1.62 mul V closepath stroke} def
/PentE {stroke [] 0 setdash gsave
  translate 0 hpt M 4 {72 rotate 0 hpt L} repeat
  closepath stroke grestore} def
/CircE {stroke [] 0 setdash 
  hpt 0 360 arc stroke} def
/Opaque {gsave closepath 1 setgray fill grestore 0 setgray closepath} def
/DiaW {stroke [] 0 setdash vpt add M
  hpt neg vpt neg V hpt vpt neg V
  hpt vpt V hpt neg vpt V Opaque stroke} def
/BoxW {stroke [] 0 setdash exch hpt sub exch vpt add M
  0 vpt2 neg V hpt2 0 V 0 vpt2 V
  hpt2 neg 0 V Opaque stroke} def
/TriUW {stroke [] 0 setdash vpt 1.12 mul add M
  hpt neg vpt -1.62 mul V
  hpt 2 mul 0 V
  hpt neg vpt 1.62 mul V Opaque stroke} def
/TriDW {stroke [] 0 setdash vpt 1.12 mul sub M
  hpt neg vpt 1.62 mul V
  hpt 2 mul 0 V
  hpt neg vpt -1.62 mul V Opaque stroke} def
/PentW {stroke [] 0 setdash gsave
  translate 0 hpt M 4 {72 rotate 0 hpt L} repeat
  Opaque stroke grestore} def
/CircW {stroke [] 0 setdash 
  hpt 0 360 arc Opaque stroke} def
/BoxFill {gsave Rec 1 setgray fill grestore} def
/Density {
  /Fillden exch def
  currentrgbcolor
  /ColB exch def /ColG exch def /ColR exch def
  /ColR ColR Fillden mul Fillden sub 1 add def
  /ColG ColG Fillden mul Fillden sub 1 add def
  /ColB ColB Fillden mul Fillden sub 1 add def
  ColR ColG ColB setrgbcolor} def
/BoxColFill {gsave Rec PolyFill} def
/PolyFill {gsave Density fill grestore grestore} def
/h {rlineto rlineto rlineto gsave closepath fill grestore} bind def
%
% PostScript Level 1 Pattern Fill routine for rectangles
% Usage: x y w h s a XX PatternFill
%	x,y = lower left corner of box to be filled
%	w,h = width and height of box
%	  a = angle in degrees between lines and x-axis
%	 XX = 0/1 for no/yes cross-hatch
%
/PatternFill {gsave /PFa [ 9 2 roll ] def
  PFa 0 get PFa 2 get 2 div add PFa 1 get PFa 3 get 2 div add translate
  PFa 2 get -2 div PFa 3 get -2 div PFa 2 get PFa 3 get Rec
  TransparentPatterns {} {gsave 1 setgray fill grestore} ifelse
  clip
  currentlinewidth 0.5 mul setlinewidth
  /PFs PFa 2 get dup mul PFa 3 get dup mul add sqrt def
  0 0 M PFa 5 get rotate PFs -2 div dup translate
  0 1 PFs PFa 4 get div 1 add floor cvi
	{PFa 4 get mul 0 M 0 PFs V} for
  0 PFa 6 get ne {
	0 1 PFs PFa 4 get div 1 add floor cvi
	{PFa 4 get mul 0 2 1 roll M PFs 0 V} for
 } if
  stroke grestore} def
%
/languagelevel where
 {pop languagelevel} {1} ifelse
 2 lt
	{/InterpretLevel1 true def}
	{/InterpretLevel1 Level1 def}
 ifelse
%
% PostScript level 2 pattern fill definitions
%
/Level2PatternFill {
/Tile8x8 {/PaintType 2 /PatternType 1 /TilingType 1 /BBox [0 0 8 8] /XStep 8 /YStep 8}
	bind def
/KeepColor {currentrgbcolor [/Pattern /DeviceRGB] setcolorspace} bind def
<< Tile8x8
 /PaintProc {0.5 setlinewidth pop 0 0 M 8 8 L 0 8 M 8 0 L stroke} 
>> matrix makepattern
/Pat1 exch def
<< Tile8x8
 /PaintProc {0.5 setlinewidth pop 0 0 M 8 8 L 0 8 M 8 0 L stroke
	0 4 M 4 8 L 8 4 L 4 0 L 0 4 L stroke}
>> matrix makepattern
/Pat2 exch def
<< Tile8x8
 /PaintProc {0.5 setlinewidth pop 0 0 M 0 8 L
	8 8 L 8 0 L 0 0 L fill}
>> matrix makepattern
/Pat3 exch def
<< Tile8x8
 /PaintProc {0.5 setlinewidth pop -4 8 M 8 -4 L
	0 12 M 12 0 L stroke}
>> matrix makepattern
/Pat4 exch def
<< Tile8x8
 /PaintProc {0.5 setlinewidth pop -4 0 M 8 12 L
	0 -4 M 12 8 L stroke}
>> matrix makepattern
/Pat5 exch def
<< Tile8x8
 /PaintProc {0.5 setlinewidth pop -2 8 M 4 -4 L
	0 12 M 8 -4 L 4 12 M 10 0 L stroke}
>> matrix makepattern
/Pat6 exch def
<< Tile8x8
 /PaintProc {0.5 setlinewidth pop -2 0 M 4 12 L
	0 -4 M 8 12 L 4 -4 M 10 8 L stroke}
>> matrix makepattern
/Pat7 exch def
<< Tile8x8
 /PaintProc {0.5 setlinewidth pop 8 -2 M -4 4 L
	12 0 M -4 8 L 12 4 M 0 10 L stroke}
>> matrix makepattern
/Pat8 exch def
<< Tile8x8
 /PaintProc {0.5 setlinewidth pop 0 -2 M 12 4 L
	-4 0 M 12 8 L -4 4 M 8 10 L stroke}
>> matrix makepattern
/Pat9 exch def
/Pattern1 {PatternBgnd KeepColor Pat1 setpattern} bind def
/Pattern2 {PatternBgnd KeepColor Pat2 setpattern} bind def
/Pattern3 {PatternBgnd KeepColor Pat3 setpattern} bind def
/Pattern4 {PatternBgnd KeepColor Landscape {Pat5} {Pat4} ifelse setpattern} bind def
/Pattern5 {PatternBgnd KeepColor Landscape {Pat4} {Pat5} ifelse setpattern} bind def
/Pattern6 {PatternBgnd KeepColor Landscape {Pat9} {Pat6} ifelse setpattern} bind def
/Pattern7 {PatternBgnd KeepColor Landscape {Pat8} {Pat7} ifelse setpattern} bind def
} def
%
%
%End of PostScript Level 2 code
%
/PatternBgnd {
  TransparentPatterns {} {gsave 1 setgray fill grestore} ifelse
} def
%
% Substitute for Level 2 pattern fill codes with
% grayscale if Level 2 support is not selected.
%
/Level1PatternFill {
/Pattern1 {0.250 Density} bind def
/Pattern2 {0.500 Density} bind def
/Pattern3 {0.750 Density} bind def
/Pattern4 {0.125 Density} bind def
/Pattern5 {0.375 Density} bind def
/Pattern6 {0.625 Density} bind def
/Pattern7 {0.875 Density} bind def
} def
%
% Now test for support of Level 2 code
%
Level1 {Level1PatternFill} {Level2PatternFill} ifelse
%
/Symbol-Oblique /Symbol findfont [1 0 .167 1 0 0] makefont
dup length dict begin {1 index /FID eq {pop pop} {def} ifelse} forall
currentdict end definefont pop
/MFshow {
   { dup 5 get 3 ge
     { 5 get 3 eq {gsave} {grestore} ifelse }
     {dup dup 0 get findfont exch 1 get scalefont setfont
     [ currentpoint ] exch dup 2 get 0 exch R dup 5 get 2 ne {dup dup 6
     get exch 4 get {Gshow} {stringwidth pop 0 R} ifelse }if dup 5 get 0 eq
     {dup 3 get {2 get neg 0 exch R pop} {pop aload pop M} ifelse} {dup 5
     get 1 eq {dup 2 get exch dup 3 get exch 6 get stringwidth pop -2 div
     dup 0 R} {dup 6 get stringwidth pop -2 div 0 R 6 get
     show 2 index {aload pop M neg 3 -1 roll neg R pop pop} {pop pop pop
     pop aload pop M} ifelse }ifelse }ifelse }
     ifelse }
   forall} def
/Gswidth {dup type /stringtype eq {stringwidth} {pop (n) stringwidth} ifelse} def
/MFwidth {0 exch { dup 5 get 3 ge { 5 get 3 eq { 0 } { pop } ifelse }
 {dup 3 get{dup dup 0 get findfont exch 1 get scalefont setfont
     6 get Gswidth pop add} {pop} ifelse} ifelse} forall} def
/MLshow { currentpoint stroke M
  0 exch R
  Blacktext {gsave 0 setgray MFshow grestore} {MFshow} ifelse } bind def
/MRshow { currentpoint stroke M
  exch dup MFwidth neg 3 -1 roll R
  Blacktext {gsave 0 setgray MFshow grestore} {MFshow} ifelse } bind def
/MCshow { currentpoint stroke M
  exch dup MFwidth -2 div 3 -1 roll R
  Blacktext {gsave 0 setgray MFshow grestore} {MFshow} ifelse } bind def
/XYsave    { [( ) 1 2 true false 3 ()] } bind def
/XYrestore { [( ) 1 2 true false 4 ()] } bind def
Level1 SuppressPDFMark or 
{} {
/SDict 10 dict def
systemdict /pdfmark known not {
  userdict /pdfmark systemdict /cleartomark get put
} if
SDict begin [
  /Title (r3-sl-numbers.eps)
  /Subject (gnuplot plot)
  /Creator (gnuplot 4.6 patchlevel 5)
  /Author (adizere)
%  /Producer (gnuplot)
%  /Keywords ()
  /CreationDate (Fri Oct 27 10:40:07 2017)
  /DOCINFO pdfmark
end
} ifelse
end
%%EndProlog
%%Page: 1 1
gnudict begin
gsave
doclip
50 50 translate
0.050 0.050 scale
0 setgray
newpath
(Helvetica) findfont 300 scalefont setfont
BackgroundColor 0 lt 3 1 roll 0 lt exch 0 lt or or not {BackgroundColor C 1.000 0 0 20160.00 5040.00 BoxColFill} if
1.000 UL
LTb
LCb setrgbcolor
1.500 UL
LT2
0.87 0.80 0.87 C 1814 1158 M
17805 0 V
stroke
1.000 UL
LTb
LCb setrgbcolor
1814 1158 M
-31 0 V
stroke
1728 1158 M
[ [(Helvetica) 300.0 0.0 true true 0 ( 0)]
] -100.0 MRshow
1.000 UL
LTb
LCb setrgbcolor
1.500 UL
LT2
0.87 0.80 0.87 C 1814 1612 M
17805 0 V
stroke
1.000 UL
LTb
LCb setrgbcolor
1814 1612 M
-31 0 V
stroke
1728 1612 M
[ [(Helvetica) 300.0 0.0 true true 0 ( 2000)]
] -100.0 MRshow
1.000 UL
LTb
LCb setrgbcolor
1.500 UL
LT2
0.87 0.80 0.87 C 1814 2067 M
17805 0 V
stroke
1.000 UL
LTb
LCb setrgbcolor
1814 2067 M
-31 0 V
stroke
1728 2067 M
[ [(Helvetica) 300.0 0.0 true true 0 ( 4000)]
] -100.0 MRshow
1.000 UL
LTb
LCb setrgbcolor
1.500 UL
LT2
0.87 0.80 0.87 C 1814 2521 M
17805 0 V
stroke
1.000 UL
LTb
LCb setrgbcolor
1814 2521 M
-31 0 V
stroke
1728 2521 M
[ [(Helvetica) 300.0 0.0 true true 0 ( 6000)]
] -100.0 MRshow
1.000 UL
LTb
LCb setrgbcolor
1.500 UL
LT2
0.87 0.80 0.87 C 1814 2975 M
17805 0 V
stroke
1.000 UL
LTb
LCb setrgbcolor
1814 2975 M
-31 0 V
stroke
1728 2975 M
[ [(Helvetica) 300.0 0.0 true true 0 ( 8000)]
] -100.0 MRshow
1.000 UL
LTb
LCb setrgbcolor
1.500 UL
LT2
0.87 0.80 0.87 C 1814 3430 M
17805 0 V
stroke
1.000 UL
LTb
LCb setrgbcolor
1814 3430 M
-31 0 V
stroke
1728 3430 M
[ [(Helvetica) 300.0 0.0 true true 0 ( 10000)]
] -100.0 MRshow
1.000 UL
LTb
LCb setrgbcolor
1.500 UL
LT2
0.87 0.80 0.87 C 1814 3884 M
12162 0 V
5463 0 R
180 0 V
stroke
1.000 UL
LTb
LCb setrgbcolor
1814 3884 M
-31 0 V
stroke
1728 3884 M
[ [(Helvetica) 300.0 0.0 true true 0 ( 12000)]
] -100.0 MRshow
1.000 UL
LTb
LCb setrgbcolor
1.500 UL
LT2
0.87 0.80 0.87 C 1814 4338 M
12162 0 V
5463 0 R
180 0 V
stroke
1.000 UL
LTb
LCb setrgbcolor
1814 4338 M
-31 0 V
stroke
1728 4338 M
[ [(Helvetica) 300.0 0.0 true true 0 ( 14000)]
] -100.0 MRshow
1.000 UL
LTb
LCb setrgbcolor
1.500 UL
LT2
0.87 0.80 0.87 C 2646 1158 M
0 3521 V
stroke
1.000 UL
LTb
LCb setrgbcolor
2646 1158 M
0 -31 V
stroke
2556 947 M
currentpoint gsave translate -60 rotate 0 0 moveto
[ [(Helvetica) 300.0 0.0 true true 0 (6)]
] -100.0 MLshow
grestore
1.000 UL
LTb
LCb setrgbcolor
1.500 UL
LT2
0.87 0.80 0.87 C 3478 1158 M
0 3521 V
stroke
1.000 UL
LTb
LCb setrgbcolor
3478 1158 M
0 -31 V
stroke
3388 947 M
currentpoint gsave translate -60 rotate 0 0 moveto
[ [(Helvetica) 300.0 0.0 true true 0 (11)]
] -100.0 MLshow
grestore
1.000 UL
LTb
LCb setrgbcolor
1.500 UL
LT2
0.87 0.80 0.87 C 4310 1158 M
0 3521 V
stroke
1.000 UL
LTb
LCb setrgbcolor
4310 1158 M
0 -31 V
stroke
4220 947 M
currentpoint gsave translate -60 rotate 0 0 moveto
[ [(Helvetica) 300.0 0.0 true true 0 (16)]
] -100.0 MLshow
grestore
1.000 UL
LTb
LCb setrgbcolor
1.500 UL
LT2
0.87 0.80 0.87 C 5142 1158 M
0 3521 V
stroke
1.000 UL
LTb
LCb setrgbcolor
5142 1158 M
0 -31 V
stroke
5052 947 M
currentpoint gsave translate -60 rotate 0 0 moveto
[ [(Helvetica) 300.0 0.0 true true 0 (21)]
] -100.0 MLshow
grestore
1.000 UL
LTb
LCb setrgbcolor
1.500 UL
LT2
0.87 0.80 0.87 C 5974 1158 M
0 3521 V
stroke
1.000 UL
LTb
LCb setrgbcolor
5974 1158 M
0 -31 V
stroke
5884 947 M
currentpoint gsave translate -60 rotate 0 0 moveto
[ [(Helvetica) 300.0 0.0 true true 0 (26)]
] -100.0 MLshow
grestore
1.000 UL
LTb
LCb setrgbcolor
1.500 UL
LT2
0.87 0.80 0.87 C 6806 1158 M
0 3521 V
stroke
1.000 UL
LTb
LCb setrgbcolor
6806 1158 M
0 -31 V
stroke
6716 947 M
currentpoint gsave translate -60 rotate 0 0 moveto
[ [(Helvetica) 300.0 0.0 true true 0 (31)]
] -100.0 MLshow
grestore
1.000 UL
LTb
LCb setrgbcolor
1.500 UL
LT2
0.87 0.80 0.87 C 7638 1158 M
0 3521 V
stroke
1.000 UL
LTb
LCb setrgbcolor
7638 1158 M
0 -31 V
stroke
7548 947 M
currentpoint gsave translate -60 rotate 0 0 moveto
[ [(Helvetica) 300.0 0.0 true true 0 (36)]
] -100.0 MLshow
grestore
1.000 UL
LTb
LCb setrgbcolor
1.500 UL
LT2
0.87 0.80 0.87 C 8470 1158 M
0 3521 V
stroke
1.000 UL
LTb
LCb setrgbcolor
8470 1158 M
0 -31 V
stroke
8380 947 M
currentpoint gsave translate -60 rotate 0 0 moveto
[ [(Helvetica) 300.0 0.0 true true 0 (41)]
] -100.0 MLshow
grestore
1.000 UL
LTb
LCb setrgbcolor
1.500 UL
LT2
0.87 0.80 0.87 C 9302 1158 M
0 3521 V
stroke
1.000 UL
LTb
LCb setrgbcolor
9302 1158 M
0 -31 V
stroke
9212 947 M
currentpoint gsave translate -60 rotate 0 0 moveto
[ [(Helvetica) 300.0 0.0 true true 0 (46)]
] -100.0 MLshow
grestore
1.000 UL
LTb
LCb setrgbcolor
1.500 UL
LT2
0.87 0.80 0.87 C 10134 1158 M
0 3521 V
stroke
1.000 UL
LTb
LCb setrgbcolor
10134 1158 M
0 -31 V
stroke
10044 947 M
currentpoint gsave translate -60 rotate 0 0 moveto
[ [(Helvetica) 300.0 0.0 true true 0 (51)]
] -100.0 MLshow
grestore
1.000 UL
LTb
LCb setrgbcolor
1.500 UL
LT2
0.87 0.80 0.87 C 10966 1158 M
0 3521 V
stroke
1.000 UL
LTb
LCb setrgbcolor
10966 1158 M
0 -31 V
stroke
10876 947 M
currentpoint gsave translate -60 rotate 0 0 moveto
[ [(Helvetica) 300.0 0.0 true true 0 (56)]
] -100.0 MLshow
grestore
1.000 UL
LTb
LCb setrgbcolor
1.500 UL
LT2
0.87 0.80 0.87 C 11798 1158 M
0 3521 V
stroke
1.000 UL
LTb
LCb setrgbcolor
11798 1158 M
0 -31 V
stroke
11708 947 M
currentpoint gsave translate -60 rotate 0 0 moveto
[ [(Helvetica) 300.0 0.0 true true 0 (61)]
] -100.0 MLshow
grestore
1.000 UL
LTb
LCb setrgbcolor
1.500 UL
LT2
0.87 0.80 0.87 C 12630 1158 M
0 3521 V
stroke
1.000 UL
LTb
LCb setrgbcolor
12630 1158 M
0 -31 V
stroke
12540 947 M
currentpoint gsave translate -60 rotate 0 0 moveto
[ [(Helvetica) 300.0 0.0 true true 0 (66)]
] -100.0 MLshow
grestore
1.000 UL
LTb
LCb setrgbcolor
1.500 UL
LT2
0.87 0.80 0.87 C 13462 1158 M
0 3521 V
stroke
1.000 UL
LTb
LCb setrgbcolor
13462 1158 M
0 -31 V
stroke
13372 947 M
currentpoint gsave translate -60 rotate 0 0 moveto
[ [(Helvetica) 300.0 0.0 true true 0 (71)]
] -100.0 MLshow
grestore
1.000 UL
LTb
LCb setrgbcolor
1.500 UL
LT2
0.87 0.80 0.87 C 14294 1158 M
0 2558 V
0 900 R
0 63 V
stroke
1.000 UL
LTb
LCb setrgbcolor
14294 1158 M
0 -31 V
stroke
14204 947 M
currentpoint gsave translate -60 rotate 0 0 moveto
[ [(Helvetica) 300.0 0.0 true true 0 (76)]
] -100.0 MLshow
grestore
1.000 UL
LTb
LCb setrgbcolor
1.500 UL
LT2
0.87 0.80 0.87 C 15126 1158 M
0 2558 V
0 900 R
0 63 V
stroke
1.000 UL
LTb
LCb setrgbcolor
15126 1158 M
0 -31 V
stroke
15036 947 M
currentpoint gsave translate -60 rotate 0 0 moveto
[ [(Helvetica) 300.0 0.0 true true 0 (81)]
] -100.0 MLshow
grestore
1.000 UL
LTb
LCb setrgbcolor
1.500 UL
LT2
0.87 0.80 0.87 C 15958 1158 M
0 2558 V
0 900 R
0 63 V
stroke
1.000 UL
LTb
LCb setrgbcolor
15958 1158 M
0 -31 V
stroke
15868 947 M
currentpoint gsave translate -60 rotate 0 0 moveto
[ [(Helvetica) 300.0 0.0 true true 0 (86)]
] -100.0 MLshow
grestore
1.000 UL
LTb
LCb setrgbcolor
1.500 UL
LT2
0.87 0.80 0.87 C 16790 1158 M
0 2558 V
0 900 R
0 63 V
stroke
1.000 UL
LTb
LCb setrgbcolor
16790 1158 M
0 -31 V
stroke
16700 947 M
currentpoint gsave translate -60 rotate 0 0 moveto
[ [(Helvetica) 300.0 0.0 true true 0 (91)]
] -100.0 MLshow
grestore
1.000 UL
LTb
LCb setrgbcolor
1.500 UL
LT2
0.87 0.80 0.87 C 17622 1158 M
0 2558 V
0 900 R
0 63 V
stroke
1.000 UL
LTb
LCb setrgbcolor
17622 1158 M
0 -31 V
stroke
17532 947 M
currentpoint gsave translate -60 rotate 0 0 moveto
[ [(Helvetica) 300.0 0.0 true true 0 (96)]
] -100.0 MLshow
grestore
1.000 UL
LTb
LCb setrgbcolor
1.500 UL
LT2
0.87 0.80 0.87 C 18454 1158 M
0 2558 V
0 900 R
0 63 V
stroke
1.000 UL
LTb
LCb setrgbcolor
18454 1158 M
0 -31 V
stroke
18364 947 M
currentpoint gsave translate -60 rotate 0 0 moveto
[ [(Helvetica) 300.0 0.0 true true 0 (101)]
] -100.0 MLshow
grestore
1.000 UL
LTb
LCb setrgbcolor
1.500 UL
LT2
0.87 0.80 0.87 C 19286 1158 M
0 2558 V
0 900 R
0 63 V
stroke
1.000 UL
LTb
LCb setrgbcolor
19286 1158 M
0 -31 V
stroke
19196 947 M
currentpoint gsave translate -60 rotate 0 0 moveto
[ [(Helvetica) 300.0 0.0 true true 0 (106)]
] -100.0 MLshow
grestore
1.000 UL
LTb
LCb setrgbcolor
1.000 UL
LTb
LCb setrgbcolor
1814 4679 N
0 -3521 V
17805 0 V
0 3521 V
-17805 0 V
Z stroke
LCb setrgbcolor
253 2918 M
currentpoint gsave translate -270 rotate 0 0 moveto
[ [(Helvetica) 300.0 0.0 true true 0 (Peak throughput)]
] -100.0 MCshow
grestore
553 2918 M
currentpoint gsave translate -270 rotate 0 0 moveto
[ [(Helvetica) 300.0 0.0 true true 0 (\(tps\))]
] -100.0 MCshow
grestore
LTb
LCb setrgbcolor
11076 210 M
[ [(Helvetica) 300.0 0.0 true true 0 (Carousel system size \(number of replicas in the system\))]
] -100.0 MCshow
LTb
1.000 UP
2016 4636 M
currentpoint gsave translate -60 rotate 0 0 moveto
[ [(Helvetica) 260.0 0.0 true true 0 (12353.94)]
] -86.7 MLshow
grestore
2621 2923 M
currentpoint gsave translate -60 rotate 0 0 moveto
[ [(Helvetica) 260.0 0.0 true true 0 (8649.77)]
] -86.7 MLshow
grestore
19091 2000 M
currentpoint gsave translate -60 rotate 0 0 moveto
[ [(Helvetica) 260.0 0.0 true true 0 (4228.01)]
] -86.7 MLshow
grestore
1.000 UL
LTb
LCb setrgbcolor
1.000 UL
LTb
LCb setrgbcolor
13976 3716 N
0 900 V
5463 0 V
0 -900 V
-5463 0 V
Z stroke
% Begin plot #1
2.000 UP
2.000 UL
LT0
0.89 0.11 0.09 C LCb setrgbcolor
18296 4316 M
[ [(Helvetica) 300.0 0.0 true true 0 (Throughput \(faulty case\))]
] -100.0 MRshow
LT0
0.89 0.11 0.09 C 18476 4316 M
783 0 V
2646 3123 M
832 -286 V
832 -64 V
832 45 V
832 -87 V
832 41 V
832 -180 V
832 21 V
832 -87 V
832 -130 V
832 21 V
832 6 V
832 -122 V
832 -22 V
832 110 V
832 -64 V
832 -52 V
832 -32 V
832 -69 V
832 -46 V
832 -8 V
stroke
LCw setrgbcolor
3.000 UP
2646 3123 CircleF
2.000 UP
2.000 UL
LT0
0.89 0.11 0.09 C 2646 3123 BoxF
LCw setrgbcolor
3.000 UP
3478 2837 CircleF
2.000 UP
2.000 UL
LT0
0.89 0.11 0.09 C 3478 2837 BoxF
LCw setrgbcolor
3.000 UP
4310 2773 CircleF
2.000 UP
2.000 UL
LT0
0.89 0.11 0.09 C 4310 2773 BoxF
LCw setrgbcolor
3.000 UP
5142 2818 CircleF
2.000 UP
2.000 UL
LT0
0.89 0.11 0.09 C 5142 2818 BoxF
LCw setrgbcolor
3.000 UP
5974 2731 CircleF
2.000 UP
2.000 UL
LT0
0.89 0.11 0.09 C 5974 2731 BoxF
LCw setrgbcolor
3.000 UP
6806 2772 CircleF
2.000 UP
2.000 UL
LT0
0.89 0.11 0.09 C 6806 2772 BoxF
LCw setrgbcolor
3.000 UP
7638 2592 CircleF
2.000 UP
2.000 UL
LT0
0.89 0.11 0.09 C 7638 2592 BoxF
LCw setrgbcolor
3.000 UP
8470 2613 CircleF
2.000 UP
2.000 UL
LT0
0.89 0.11 0.09 C 8470 2613 BoxF
LCw setrgbcolor
3.000 UP
9302 2526 CircleF
2.000 UP
2.000 UL
LT0
0.89 0.11 0.09 C 9302 2526 BoxF
LCw setrgbcolor
3.000 UP
10134 2396 CircleF
2.000 UP
2.000 UL
LT0
0.89 0.11 0.09 C 10134 2396 BoxF
LCw setrgbcolor
3.000 UP
10966 2417 CircleF
2.000 UP
2.000 UL
LT0
0.89 0.11 0.09 C 10966 2417 BoxF
LCw setrgbcolor
3.000 UP
11798 2423 CircleF
2.000 UP
2.000 UL
LT0
0.89 0.11 0.09 C 11798 2423 BoxF
LCw setrgbcolor
3.000 UP
12630 2301 CircleF
2.000 UP
2.000 UL
LT0
0.89 0.11 0.09 C 12630 2301 BoxF
LCw setrgbcolor
3.000 UP
13462 2279 CircleF
2.000 UP
2.000 UL
LT0
0.89 0.11 0.09 C 13462 2279 BoxF
LCw setrgbcolor
3.000 UP
14294 2389 CircleF
2.000 UP
2.000 UL
LT0
0.89 0.11 0.09 C 14294 2389 BoxF
LCw setrgbcolor
3.000 UP
15126 2325 CircleF
2.000 UP
2.000 UL
LT0
0.89 0.11 0.09 C 15126 2325 BoxF
LCw setrgbcolor
3.000 UP
15958 2273 CircleF
2.000 UP
2.000 UL
LT0
0.89 0.11 0.09 C 15958 2273 BoxF
LCw setrgbcolor
3.000 UP
16790 2241 CircleF
2.000 UP
2.000 UL
LT0
0.89 0.11 0.09 C 16790 2241 BoxF
LCw setrgbcolor
3.000 UP
17622 2172 CircleF
2.000 UP
2.000 UL
LT0
0.89 0.11 0.09 C 17622 2172 BoxF
LCw setrgbcolor
3.000 UP
18454 2126 CircleF
2.000 UP
2.000 UL
LT0
0.89 0.11 0.09 C 18454 2126 BoxF
LCw setrgbcolor
3.000 UP
19286 2118 CircleF
2.000 UP
2.000 UL
LT0
0.89 0.11 0.09 C 19286 2118 BoxF
LCw setrgbcolor
3.000 UP
18867 4316 CircleF
2.000 UP
2.000 UL
LT0
0.89 0.11 0.09 C 18867 4316 BoxF
% End plot #1
% Begin plot #2
2.000 UP
2.000 UL
LT0
0.89 0.11 0.09 C 2646 3091 M
0 64 V
-31 -64 R
62 0 V
-62 64 R
62 0 V
801 -369 R
0 101 V
-31 -101 R
62 0 V
-62 101 R
62 0 V
801 -140 R
0 53 V
-31 -53 R
62 0 V
-62 53 R
62 0 V
801 -7 R
0 51 V
-31 -51 R
62 0 V
-62 51 R
62 0 V
801 -125 R
0 23 V
-31 -23 R
62 0 V
-62 23 R
62 0 V
801 10 R
0 40 V
-31 -40 R
62 0 V
-62 40 R
62 0 V
801 -247 R
0 95 V
-31 -95 R
62 0 V
-62 95 R
62 0 V
801 -79 R
0 105 V
-31 -105 R
62 0 V
-62 105 R
62 0 V
801 -157 R
0 35 V
-31 -35 R
62 0 V
-62 35 R
62 0 V
801 -178 R
0 60 V
-31 -60 R
62 0 V
-62 60 R
62 0 V
801 -56 R
0 93 V
-31 -93 R
62 0 V
-62 93 R
62 0 V
801 -56 R
0 31 V
-31 -31 R
62 0 V
-62 31 R
62 0 V
801 -147 R
0 20 V
-31 -20 R
62 0 V
-62 20 R
62 0 V
801 -99 R
0 134 V
-31 -134 R
62 0 V
-62 134 R
62 0 V
801 -18 R
0 121 V
-31 -121 R
62 0 V
-62 121 R
62 0 V
801 -156 R
0 63 V
-31 -63 R
62 0 V
-62 63 R
62 0 V
801 -86 R
0 6 V
-31 -6 R
62 0 V
-62 6 R
62 0 V
801 -78 R
0 87 V
-31 -87 R
62 0 V
stroke 16821 2198 M
-62 87 R
62 0 V
801 -122 R
0 19 V
-31 -19 R
62 0 V
-62 19 R
62 0 V
801 -62 R
0 11 V
-31 -11 R
62 0 V
-62 11 R
62 0 V
801 -22 R
0 19 V
-31 -19 R
62 0 V
-62 19 R
62 0 V
2646 3123 BoxF
3478 2837 BoxF
4310 2773 BoxF
5142 2818 BoxF
5974 2731 BoxF
6806 2772 BoxF
7638 2592 BoxF
8470 2613 BoxF
9302 2526 BoxF
10134 2396 BoxF
10966 2417 BoxF
11798 2423 BoxF
12630 2301 BoxF
13462 2279 BoxF
14294 2389 BoxF
15126 2325 BoxF
15958 2273 BoxF
16790 2241 BoxF
17622 2172 BoxF
18454 2126 BoxF
19286 2118 BoxF
% End plot #2
% Begin plot #3
2.000 UP
2.000 UL
LT1
0.00 0.38 0.68 C LCb setrgbcolor
18296 4016 M
[ [(Helvetica) 300.0 0.0 true true 0 (Throughput \(common case\))]
] -100.0 MRshow
LT1
0.00 0.38 0.68 C 18476 4016 M
783 0 V
2646 3964 M
832 -98 V
832 -102 V
832 -137 V
832 -62 V
832 -77 V
832 -74 V
832 -84 V
832 -75 V
832 -81 V
832 -35 V
832 -69 V
832 -71 V
832 -57 V
832 -26 V
832 -114 V
832 -1 V
832 -25 V
832 -56 V
832 9 V
832 -97 V
stroke
LCw setrgbcolor
3.000 UP
2646 3964 CircleF
2.000 UP
2.000 UL
LT1
0.00 0.38 0.68 C 2646 3964 Circle
LCw setrgbcolor
3.000 UP
3478 3866 CircleF
2.000 UP
2.000 UL
LT1
0.00 0.38 0.68 C 3478 3866 Circle
LCw setrgbcolor
3.000 UP
4310 3764 CircleF
2.000 UP
2.000 UL
LT1
0.00 0.38 0.68 C 4310 3764 Circle
LCw setrgbcolor
3.000 UP
5142 3627 CircleF
2.000 UP
2.000 UL
LT1
0.00 0.38 0.68 C 5142 3627 Circle
LCw setrgbcolor
3.000 UP
5974 3565 CircleF
2.000 UP
2.000 UL
LT1
0.00 0.38 0.68 C 5974 3565 Circle
LCw setrgbcolor
3.000 UP
6806 3488 CircleF
2.000 UP
2.000 UL
LT1
0.00 0.38 0.68 C 6806 3488 Circle
LCw setrgbcolor
3.000 UP
7638 3414 CircleF
2.000 UP
2.000 UL
LT1
0.00 0.38 0.68 C 7638 3414 Circle
LCw setrgbcolor
3.000 UP
8470 3330 CircleF
2.000 UP
2.000 UL
LT1
0.00 0.38 0.68 C 8470 3330 Circle
LCw setrgbcolor
3.000 UP
9302 3255 CircleF
2.000 UP
2.000 UL
LT1
0.00 0.38 0.68 C 9302 3255 Circle
LCw setrgbcolor
3.000 UP
10134 3174 CircleF
2.000 UP
2.000 UL
LT1
0.00 0.38 0.68 C 10134 3174 Circle
LCw setrgbcolor
3.000 UP
10966 3139 CircleF
2.000 UP
2.000 UL
LT1
0.00 0.38 0.68 C 10966 3139 Circle
LCw setrgbcolor
3.000 UP
11798 3070 CircleF
2.000 UP
2.000 UL
LT1
0.00 0.38 0.68 C 11798 3070 Circle
LCw setrgbcolor
3.000 UP
12630 2999 CircleF
2.000 UP
2.000 UL
LT1
0.00 0.38 0.68 C 12630 2999 Circle
LCw setrgbcolor
3.000 UP
13462 2942 CircleF
2.000 UP
2.000 UL
LT1
0.00 0.38 0.68 C 13462 2942 Circle
LCw setrgbcolor
3.000 UP
14294 2916 CircleF
2.000 UP
2.000 UL
LT1
0.00 0.38 0.68 C 14294 2916 Circle
LCw setrgbcolor
3.000 UP
15126 2802 CircleF
2.000 UP
2.000 UL
LT1
0.00 0.38 0.68 C 15126 2802 Circle
LCw setrgbcolor
3.000 UP
15958 2801 CircleF
2.000 UP
2.000 UL
LT1
0.00 0.38 0.68 C 15958 2801 Circle
LCw setrgbcolor
3.000 UP
16790 2776 CircleF
2.000 UP
2.000 UL
LT1
0.00 0.38 0.68 C 16790 2776 Circle
LCw setrgbcolor
3.000 UP
17622 2720 CircleF
2.000 UP
2.000 UL
LT1
0.00 0.38 0.68 C 17622 2720 Circle
LCw setrgbcolor
3.000 UP
18454 2729 CircleF
2.000 UP
2.000 UL
LT1
0.00 0.38 0.68 C 18454 2729 Circle
LCw setrgbcolor
3.000 UP
19286 2632 CircleF
2.000 UP
2.000 UL
LT1
0.00 0.38 0.68 C 19286 2632 Circle
LCw setrgbcolor
3.000 UP
18867 4016 CircleF
2.000 UP
2.000 UL
LT1
0.00 0.38 0.68 C 18867 4016 Circle
% End plot #3
% Begin plot #4
2.000 UP
2.000 UL
LT1
0.00 0.38 0.68 C 2646 3928 M
0 73 V
-31 -73 R
62 0 V
-62 73 R
62 0 V
801 -174 R
0 79 V
-31 -79 R
62 0 V
-62 79 R
62 0 V
801 -229 R
0 174 V
-31 -174 R
62 0 V
-62 174 R
62 0 V
801 -244 R
0 41 V
-31 -41 R
62 0 V
-62 41 R
62 0 V
801 -156 R
0 146 V
-31 -146 R
62 0 V
-62 146 R
62 0 V
801 -206 R
0 112 V
-31 -112 R
62 0 V
-62 112 R
62 0 V
801 -186 R
0 112 V
-31 -112 R
62 0 V
-62 112 R
62 0 V
801 -189 R
0 99 V
-31 -99 R
62 0 V
-62 99 R
62 0 V
801 -153 R
0 57 V
-31 -57 R
62 0 V
-62 57 R
62 0 V
801 -155 R
0 90 V
-31 -90 R
62 0 V
-62 90 R
62 0 V
801 -116 R
0 72 V
-31 -72 R
62 0 V
-62 72 R
62 0 V
801 -143 R
0 76 V
-31 -76 R
62 0 V
-62 76 R
62 0 V
801 -124 R
0 29 V
-31 -29 R
62 0 V
-62 29 R
62 0 V
801 -89 R
0 37 V
-31 -37 R
62 0 V
-62 37 R
62 0 V
801 -65 R
0 39 V
-31 -39 R
62 0 V
-62 39 R
62 0 V
801 -160 R
0 55 V
-31 -55 R
62 0 V
-62 55 R
62 0 V
801 -67 R
0 77 V
-31 -77 R
62 0 V
-62 77 R
62 0 V
801 -103 R
0 79 V
-31 -79 R
62 0 V
stroke 16821 2737 M
-62 79 R
62 0 V
801 -99 R
0 7 V
-31 -7 R
62 0 V
-62 7 R
62 0 V
801 -4 R
0 19 V
-31 -19 R
62 0 V
-62 19 R
62 0 V
801 -157 R
0 99 V
-31 -99 R
62 0 V
-62 99 R
62 0 V
2646 3964 Circle
3478 3866 Circle
4310 3764 Circle
5142 3627 Circle
5974 3565 Circle
6806 3488 Circle
7638 3414 Circle
8470 3330 Circle
9302 3255 Circle
10134 3174 Circle
10966 3139 Circle
11798 3070 Circle
12630 2999 Circle
13462 2942 Circle
14294 2916 Circle
15126 2802 Circle
15958 2801 Circle
16790 2776 Circle
17622 2720 Circle
18454 2729 Circle
19286 2632 Circle
% End plot #4
% Begin plot #5
1.000 UL
LT4
LC4 setrgbcolor
1.000 UP
LTb
4962 4100 M
currentpoint gsave translate -60 rotate 0 0 moveto
[ [(Helvetica) 260.0 0.0 true true 0 (10870.87)]
] -86.7 MCshow
grestore
6626 3961 M
currentpoint gsave translate -60 rotate 0 0 moveto
[ [(Helvetica) 260.0 0.0 true true 0 (10257.41)]
] -86.7 MCshow
grestore
8290 3803 M
currentpoint gsave translate -60 rotate 0 0 moveto
[ [(Helvetica) 260.0 0.0 true true 0 (9563.23)]
] -86.7 MCshow
grestore
9954 3647 M
currentpoint gsave translate -60 rotate 0 0 moveto
[ [(Helvetica) 260.0 0.0 true true 0 (8874.30)]
] -86.7 MCshow
grestore
11618 3543 M
currentpoint gsave translate -60 rotate 0 0 moveto
[ [(Helvetica) 260.0 0.0 true true 0 (8416.92)]
] -86.7 MCshow
grestore
13282 3415 M
currentpoint gsave translate -60 rotate 0 0 moveto
[ [(Helvetica) 260.0 0.0 true true 0 (7855.36)]
] -86.7 MCshow
grestore
14946 3275 M
currentpoint gsave translate -60 rotate 0 0 moveto
[ [(Helvetica) 260.0 0.0 true true 0 (7238.28)]
] -86.7 MCshow
grestore
16610 3249 M
currentpoint gsave translate -60 rotate 0 0 moveto
[ [(Helvetica) 260.0 0.0 true true 0 (7124.87)]
] -86.7 MCshow
grestore
18274 3202 M
currentpoint gsave translate -60 rotate 0 0 moveto
[ [(Helvetica) 260.0 0.0 true true 0 (6916.45)]
] -86.7 MCshow
grestore
% End plot #5
% Begin plot #6
1.000 UL
LT5
LC5 setrgbcolor
1.000 UP
LTb
5295 2246 M
currentpoint gsave translate -60 rotate 0 0 moveto
[ [(Helvetica) 260.0 0.0 true true 0 (7308.70)]
] -86.7 MCshow
grestore
6959 2200 M
currentpoint gsave translate -60 rotate 0 0 moveto
[ [(Helvetica) 260.0 0.0 true true 0 (7104.77)]
] -86.7 MCshow
grestore
8623 2041 M
currentpoint gsave translate -60 rotate 0 0 moveto
[ [(Helvetica) 260.0 0.0 true true 0 (6405.49)]
] -86.7 MCshow
grestore
10287 1824 M
currentpoint gsave translate -60 rotate 0 0 moveto
[ [(Helvetica) 260.0 0.0 true true 0 (5449.19)]
] -86.7 MCshow
grestore
11951 1850 M
currentpoint gsave translate -60 rotate 0 0 moveto
[ [(Helvetica) 260.0 0.0 true true 0 (5567.36)]
] -86.7 MCshow
grestore
13615 1707 M
currentpoint gsave translate -60 rotate 0 0 moveto
[ [(Helvetica) 260.0 0.0 true true 0 (4936.42)]
] -86.7 MCshow
grestore
15279 1753 M
currentpoint gsave translate -60 rotate 0 0 moveto
[ [(Helvetica) 260.0 0.0 true true 0 (5136.14)]
] -86.7 MCshow
grestore
16943 1669 M
currentpoint gsave translate -60 rotate 0 0 moveto
[ [(Helvetica) 260.0 0.0 true true 0 (4769.03)]
] -86.7 MCshow
grestore
% End plot #6
1.000 UL
LTb
LCb setrgbcolor
1814 4679 N
0 -3521 V
17805 0 V
0 3521 V
-17805 0 V
Z stroke
1.000 UP
1.000 UL
LTb
LCb setrgbcolor
stroke
grestore
end
showpage
%%Trailer
%%DocumentFonts: Helvetica
